%YAML 1.1
%TAG !u! tag:unity3d.com,2011:
--- !u!1045 &1
EditorBuildSettings:
  m_ObjectHideFlags: 0
  serializedVersion: 2
  m_Scenes:
  - enabled: 1
    path: Assets/Scenes/MainMenu.unity
    guid: 88e12aaee50e646458bbad1e4ac4c0c8
  - enabled: 1
    path: Assets/Scenes/TicTacToe.unity
    guid: 2cda990e2423bbf4892e6590ba056729
  m_configObjects:
    com.unity.input.settings: {fileID: 11400000, guid: cb648c4bae5e82048ab75c875f836e8e,
      type: 2}
